\begin{table}
\caption{Caption}
\label{table:Label}
\begin{center}
\begin{tabular}{L{1cm} L{1cm} L{1cm} L{1cm} L{1cm} L{1cm}}
\textbf{Mean service time} & \textbf{95 upperbound} & Self service Time mean & Prescription service time mean &  \textbf{mean self queue} & \textbf{mean prescription queue} \\
\hline
286.2105265537115 & 297.97876079224005 & 203.9779273614151 & 410.90623204322907 & 1.0384017750697119 & 1.0221521131395677\\
\end{tabular}
\end{center}
\end{table}

12.2 5.636 0.856
18.461 12.864 5.048
19.833 16.804 6.012
24.712 15.271 6.028
41.844 15.385 7.57
28.668 15.187 6.504
24.752 18.072 7.039
27.753 19.046 7.312
42.501 18.697 8.256
27.793 17.426 5.977

Mean sim time: 36000.0

Hourly service Times
8 Pre: 371.8618864053541     self: 167.13003368700106
9 Pre: 374.0543780368718     self: 285.2016027589013
10 Pre: 341.4899350389203     self: 185.41527525998274
11 Pre: 429.0500767416867     self: 151.32652746480068
12 Pre: 545.8941714468851     self: 234.56265487365388
13 Pre: 595.68239877954     self: 206.9710483510506
14 Pre: 420.79175776755426     self: 159.23343172113817
15 Pre: 351.2210080679019     self: 164.37421332375428
16 Pre: 354.71899741993553     self: 246.3385633714599
17 Pre: 342.4422316536327     self: 215.45207729331565
18 Pre: NaN     self: NaN
