\begin{table}
\caption{Caption}
\label{table:Label}
\begin{center}
\begin{tabular}{L{1cm} L{1cm} L{1cm} L{1cm} L{1cm} L{1cm}}
\textbf{Mean service time} & \textbf{95 upperbound} & Self service Time mean & Prescription service time mean &  \textbf{mean self queue} & \textbf{mean prescription queue} \\
\hline
265.7221306121351 & 275.0400481373176 & 230.2442633623742 & 319.90783532674897 & 0.0 & 0.0\\
\end{tabular}
\end{center}
\end{table}

12.095 5.707 0.859
18.424 13.037 5.252
19.81 17.126 5.869
24.858 15.036 5.967
42.243 15.111 7.483
28.48 15.163 6.573
24.984 18.102 6.969
28.005 19.078 7.435
42.943 18.645 8.284
27.885 17.295 5.939

Mean sim time: 36000.0

Hourly service Times
8 Pre: 377.0588920359703     self: 165.90231996611053
9 Pre: 303.2715766130166     self: 290.7393439245328
10 Pre: 316.09982328502974     self: 419.4885523003463
11 Pre: 315.7100544785028     self: 222.33629403519592
12 Pre: 319.0640536182139     self: 235.66750698524623
13 Pre: 317.1116925632876     self: 209.92451458617333
14 Pre: 291.3231412621641     self: 158.90034858901788
15 Pre: 291.88343525653914     self: 164.93184908166813
16 Pre: 288.7872807609845     self: 252.91896653318122
17 Pre: 440.4597509203432     self: 216.37168363908793
18 Pre: NaN     self: NaN
