\begin{table}
\caption{Caption}
\label{table:Label}
\begin{center}
\begin{tabular}{L{1cm} L{1cm} L{1cm} L{1cm} L{1cm} L{1cm}}
\textbf{Mean service time} & \textbf{95 upperbound} & Self service Time mean & Prescription service time mean &  \textbf{mean self queue} & \textbf{mean prescription queue} \\
\hline
521.9640061765168 & 547.1506675070129 & 539.9140589796947 & 479.66747070064065 & 4.905065243138748 & 1.5249889796365115\\
\end{tabular}
\end{center}
\end{table}

12.046 5.825 0.851
18.211 12.905 5.281
19.926 16.975 5.907
24.559 15.524 6.024
41.994 15.296 7.474
28.716 15.027 6.694
25.217 18.135 6.98
27.835 18.944 7.43
42.63 18.719 8.374
28.014 17.383 6.121

Mean sim time: 36000.0

Hourly service Times
8 Pre: 314.71942049335985     self: 145.89546346289234
9 Pre: 322.56392811232155     self: 316.4613148774502
10 Pre: 393.21772051492155     self: 604.2985001814056
11 Pre: 426.95224706271915     self: 1056.8645446263
12 Pre: 425.9607973432018     self: 989.4163839888816
13 Pre: 434.5195201645063     self: 642.2864714235511
14 Pre: 465.1422264271069     self: 231.2816688108567
15 Pre: 556.935438929899     self: 154.75248187932888
16 Pre: 630.6231602586099     self: 283.28461673186365
17 Pre: 643.9632055788114     self: 794.0501720044356
18 Pre: NaN     self: NaN
